Tema 4
…
## Sample means

How many observations are there in `boot_dist`? What does each observation 
represent?

--

```r
boot_dist
```

```
## Response: ppg (numeric)
## # A tibble: 100 × 2
##    replicate  stat
##        <int> <dbl>
##  1         1  72.5
##  2         2  79.7
##  3         3  63.0
##  4         4  73.1
##  5         5  67.1
##  6         6  78.1
##  7         7  92.1
##  8         8  95.7
##  9         9  88.5
## 10        10  90.8
## # ℹ 90 more rows
```
…
---
## Visualización de modelos

* Primero creamos una red de puntos de la variable predictora

```r
library(modelr)
grid <- mtcars %>% 
  data_grid(wt) 

grid
```

```
## # A tibble: 29 × 1
##       wt
##    <dbl>
##  1  1.51
##  2  1.62
##  3  1.84
##  4  1.94
##  5  2.14
##  6  2.2 
##  7  2.32
##  8  2.46
##  9  2.62
## 10  2.77
## # ℹ 19 more rows
```
…
* Con el modelo, podemos añadir predicciones

```r
reg_mod <- lm(mpg ~ wt, data = mtcars)

grid <- grid %>% 
  add_predictions(reg_mod)

grid
```

```
## # A tibble: 29 × 2
##       wt  pred
##    <dbl> <dbl>
##  1  1.51  29.2
##  2  1.62  28.7
##  3  1.84  27.5
##  4  1.94  26.9
##  5  2.14  25.8
##  6  2.2   25.5
##  7  2.32  24.9
##  8  2.46  24.1
##  9  2.62  23.3
## 10  2.77  22.5
## # ℹ 19 more rows
```
…
---
## Regresión Lineal Múltiple 

Visualizamos las predicciones

```r
grid <- teacher %>% 
  data_grid(years, degree) %>% 
  add_predictions(mod_reg)
grid
```

```
## # A tibble: 76 × 3
##    years degree   pred
##    <dbl> <fct>   <dbl>
##  1     0 MA     44838.
##  2     0 BA     42278.
##  3     1 MA     45656.
##  4     1 BA     43096.
##  5     2 MA     46474.
##  6     2 BA     43914.
##  7     3 MA     47292.
##  8     3 BA     44732.
##  9     4 MA     48110.
## 10     4 BA     45550.
## # ℹ 66 more rows
```
…
